{
  "responses": {
    "1": "that's what she said!",
    "2": "twss!",
    "3": "TWSS!",
    "4": "That's what c0sh said!",
    "5": "ohlol, that's what she said!",
    "6": "ew! you guys are sick!",
    "7": "I am a respectable lady! I will not take this lying down!",
    "8": "I am a respectable lady! I will not take this lying down!",
    "9": "aw, where's the pun in that?"
  },
  "dates": {
    "i386": {
      "snapshots": "07-Apr-2012 17:49",
      "packages": "07-Apr-2012 17:49"
    },
    "amd64": {
      "snapshots": "07-Apr-2012 17:55",
      "packages": "07-Apr-2012 17:55"
    },
    "loongson": {
      "snapshots": "07-Apr-2012 17:49",
      "packages": "07-Apr-2012 17:49"
    }
  }
}